<svg width="83.806mm" height="42.736mm" enable-background="new" version="1.1" viewBox="0 0 316.75 161.52" xmlns="http://www.w3.org/2000/svg" xmlns:osb="http://www.openswatchbook.org/uri/2009/osb" xmlns:xlink="http://www.w3.org/1999/xlink">
 <defs>
  <marker id="j" overflow="visible" orient="auto">
   <path transform="matrix(-.3 0 0 -.3 .69 0)" d="m8.7186 4.0337-10.926-4.0177 10.926-4.0177c-1.7455 2.3721-1.7354 5.6175-6e-7 8.0354z" fill="#24400f" fill-rule="evenodd" stroke="#24400f" stroke-linejoin="round" stroke-width=".625"/>
  </marker>
  <linearGradient id="a" gradientTransform="matrix(-56284 0 0 -56284 3818827 -3059362)" osb:paint="solid">
   <stop stop-color="#efc" offset="0"/>
  </linearGradient>
  <linearGradient id="c" gradientTransform="matrix(1.3167 -.5451 .5451 1.3167 -5653.3 897.58)" osb:paint="solid">
   <stop stop-color="#ad0" offset="0"/>
  </linearGradient>
  <linearGradient id="b" gradientTransform="matrix(.44704 0 0 .44916 2734.7 889.35)" osb:paint="solid">
   <stop stop-color="#790" offset="0"/>
  </linearGradient>
  <linearGradient id="e" gradientTransform="matrix(-1.1144e10 3.8296e9 5.965e9 7.4868e9 -3.5209e13 4.8104e13)" osb:paint="solid">
   <stop stop-color="#25400f" offset="0"/>
  </linearGradient>
  <linearGradient id="d">
   <stop stop-color="#fff" offset="0"/>
   <stop stop-color="#fff" stop-opacity="0" offset="1"/>
  </linearGradient>
  <path id="i" d="m-37.795 148.74 347.72 79.37c22.677 3.7795 59.61-0.84165 83.15-18.898l260.79-196.54" fill="none" stroke="url(#c)" stroke-linecap="round" stroke-width="11.339"/>
  <radialGradient id="f" cx="500.9" cy="307.92" r="34.97" gradientTransform="matrix(1 0 0 .94228 0 17.774)" gradientUnits="userSpaceOnUse">
   <stop stop-color="#ad0" offset="0"/>
   <stop stop-color="#efc" offset="1"/>
  </radialGradient>
  <linearGradient id="p" x1="415.74" x2="414.87" y1="419.04" y2="401.92" gradientTransform="translate(17.682 -24.769)" gradientUnits="userSpaceOnUse" xlink:href="#d"/>
  <linearGradient id="o" x1="415.9" x2="415.9" y1="409.09" y2="393.64" gradientTransform="translate(-14.225 -441.65)" gradientUnits="userSpaceOnUse" xlink:href="#d"/>
  <linearGradient id="n" x1="415.67" x2="414.79" y1="417.58" y2="393.64" gradientTransform="translate(-573.25 -412.08)" gradientUnits="userSpaceOnUse" xlink:href="#d"/>
  <linearGradient id="m" x1="415.67" x2="414.79" y1="417.58" y2="393.64" gradientTransform="translate(-532.54 330.94)" gradientUnits="userSpaceOnUse" xlink:href="#d"/>
  <linearGradient id="l" x1="415.67" x2="414.79" y1="417.58" y2="393.64" gradientTransform="translate(714 -235.7)" gradientUnits="userSpaceOnUse" xlink:href="#d"/>
  <linearGradient id="k" x1="415.67" x2="414.79" y1="417.58" y2="393.64" gradientTransform="matrix(1.0817 0 0 1.0817 -286.12 -501.77)" gradientUnits="userSpaceOnUse" xlink:href="#d"/>
  <clipPath id="q">
   <rect x="-6.7878" y="30.234" width="756.29" height="385.67" ry=".75355"/>
  </clipPath>
 </defs>
 <g transform="translate(456.98 -31.933)">
  <g transform="translate(-475.88 3.1774)">
   <g transform="matrix(.41882 0 0 .41882 21.74 16.093)" clip-path="url(#q)">
    <ellipse cx="500.9" cy="307.92" rx="34.97" ry="32.952" fill="url(#f)"/>
    <path d="m498.9 321.26v-4.8638c0-4 3.7795-2.6953 3.7795-2.6953" fill="none" stroke="url(#b)" stroke-linecap="round" stroke-width="1.8898"/>
    <g fill="url(#a)" stroke="url(#a)" stroke-linecap="round" stroke-linejoin="round" stroke-width="1.8898">
     <g fill="none">
      <path d="m276.14 241.64 2.654 48.23c10.263 66.159 20.434 94.941 23.975 115.05l-83.717-0.2107"/>
      <path d="m385.51 291.02c-49.97-0.36045-62.201 5.6796-88.336-2.1565"/>
      <path d="m350.88 236.91c-3.3472-13.434 10.411-13.338 67.211-74.879 0 0 12.758-8.3958 50.719-29.808 20.595-11.617-0.56729-27.384-55.854-92.875"/>
     </g>
     <path d="m406.19 206.09-11.968-19.179" fill="url(#a)" fill-rule="evenodd"/>
     <path d="m434.65 185.2-16.556-23.169c-20.292-13.01-61.812-27.431-45.824-84.039 24.633-25.068 56.01-52.244 56.01-52.244" fill="none"/>
     <path d="m554.81 335.7c-1.0692 9.8599-1.677 16.135-2.0131 35.77" fill="url(#a)" fill-rule="evenodd"/>
     <path d="m498.9 323.04c2.1033 16.682 0.0211 29.179 9.3051 53.042" fill="none"/>
     <path d="m550.03 279.69 19.856-144.65" fill="url(#a)" fill-rule="evenodd"/>
     <path d="m451.58 370.39-75.538 32.597c-16.897 2.9835-34.46 1.9691-51.852 1.9808" fill="none"/>
     <path d="m464.88 396.85c12.8-8.3449 26.572-15.846 43.321-20.769" fill="url(#a)" fill-rule="evenodd"/>
     <g fill="none">
      <path d="m515.8 120.94c-19.273-27.199-18.689-27.52-44.824-12.581"/>
      <path d="m532.91 115.17c11.833 10.061 12.761 30.3 35.568 30.118"/>
      <path d="m570.71 90.709c-3.8734 12.917-0.29515 31.315-11.694 38.706"/>
     </g>
     <path d="m569.75 94.709 44.103 4.3399" fill="url(#a)" fill-rule="evenodd"/>
     <path d="m542.25 109.61c9.2414 9.1534 18.864 27.077 27.636 25.432" fill="none"/>
     <path d="m508.2 376.08c29.384-7.606 60.819-3.8288 90.963-9.4671" fill="url(#a)" fill-rule="evenodd"/>
     <path d="m657.64 298.58c14.363-65.298 16.902-137.92 15.631-212.89" fill="none"/>
     <path d="m634.96 154.96-66.479-9.6774" fill="url(#a)" fill-rule="evenodd"/>
     <path d="m569.89 135.04 102.92 13.487" fill="url(#a)" fill-rule="evenodd"/>
     <path d="m613.85 99.049c18.032-13.619 13.567-19.481 59.414-13.358" fill="none"/>
     <g fill="url(#a)" fill-rule="evenodd">
      <path d="m623.62 249.45 40.121 4.0605"/>
      <path d="m623.62 236.11-66.333-9.2919"/>
      <path d="m699.21 221.55-29.684-2.4785"/>
     </g>
     <g fill="none">
      <path d="m712.55 39.795c-24.208 15.787-36.635 13.317-39.283 45.896"/>
      <path d="m638.52 39.795c18.4 1.0459 36.266 3.3752 50.965 13.302"/>
      <path d="m100.05 296.58c8.5584-5.0337 39.222 1.9464 84.478 1.004 37.555-0.78203 62.245-6.547 112.65-8.7196"/>
     </g>
     <path d="m100.19 296.5-100.19 108.39" fill="url(#a)" fill-rule="evenodd"/>
     <path d="m87.842 276.26c-65.343 50.508-65.026 51.952-71.388 52.578" fill="none"/>
     <g fill="url(#a)" fill-rule="evenodd">
      <path d="m83.15 255.01 71.211-1.7773"/>
      <path d="m83.15 253.23-102.32 57.618"/>
      <path d="m76.906 226.32 75.016-3.3861"/>
     </g>
     <path d="m71.811 204.09c-7.9562 8.6513-11.775 21.44-17.38 32.442l-57.708 27.67" fill="none"/>
     <path d="m119.53 327.94 38.213-8.9758" fill="url(#a)" fill-rule="evenodd"/>
     <path d="m130.03 345.7 41.253-11.445" fill="url(#a)" fill-rule="evenodd"/>
     <path d="m142.55 368.5c51.866-11.202 99.079-22.505 147.84-16.509" fill="none"/>
     <path d="m147.08 377.41-51.88 26.362" fill="url(#a)" fill-rule="evenodd"/>
     <path d="m164.41 417.66c-23.495 9.2133-49.773 22.783-90.331 32.337" fill="none"/>
     <path d="m164.41 417.66 54.645-12.942" fill="url(#a)" fill-rule="evenodd"/>
     <path d="m150.42 201.7c2.4507 39.419 8.5315 95.437 7.3269 117.26" fill="none"/>
     <path d="m200.31 215.43 7.5872 81.002" fill="url(#a)" fill-rule="evenodd"/>
     <g fill="none">
      <path d="m200.31 211.87-8.2744-40.188c-38.832-46.696-83.944-87.112-126.86-129.72"/>
      <path d="m224.99 215.43-3.6856-29.318 23.384-14.64"/>
      <path d="m255.23 222.99c8.5245-68.024-24.836-80.314-50.655-103.32"/>
     </g>
     <path d="m103.33 188.58 54.059-55.605" fill="url(#a)" fill-rule="evenodd"/>
     <path d="m64.7 166.07 64.675-59.715" fill="url(#a)" fill-rule="evenodd"/>
     <path d="m7.9459 159.43c7.1524 0.24678 76.167-62.206 94.446-78.82" fill="none"/>
     <g fill="url(#a)" fill-rule="evenodd">
      <path d="m41.575 181.42-10.719 46.499"/>
      <path d="m465.02 329.42 6.5553 16.67"/>
      <path d="m610.83 327.27 17.211 7.4786"/>
      <path d="m506.15 408.37-30.613 11.532"/>
     </g>
     <g fill="none">
      <path d="m312.11 199.85 6.1805-16.575c15.883 6.1888 29.969 15.998 42.083 34.862"/>
      <path d="m475.03 115.59c9.5633-1.0989 17.503-8.6939 26.123-13.563"/>
      <path d="m374.29 125.83c-15.147 6.8168-45.908 39.879-44.333 43.536 2.6071 6.0521 14.099 19.161 13.309 20.063"/>
      <path d="m343.33 151.4 9.467 10.621-18.576 14.316"/>
      <path d="m369.25 109.86s-15.661 5.2726-21.62 20.767c-5.9594 15.495-32.777 33.373-32.777 33.373"/>
      <path d="m370.98 82.992 41.219-9.1747"/>
      <path d="m559.39 54.747-13.905-19.865 34.565 1.9865"/>
      <path d="m258.21 291.52-6.2431 59.024 1.1504 54.264 5.6211 45.917"/>
      <path d="m404.65 397.81 21.255-8.7405-2.2462-6.6339"/>
      <path d="m428.68 436.75-100.71 22.05"/>
      <path d="m587.15 427.52c-28.919 6.3949-50.288 15.055-71.922 23.635"/>
      <path d="m-20.659 262.33c9.3364-2.5824 17.68-9.3861 17.63 7.5983-0.049662 16.984 3.0294 134.96 3.0294 134.96l-12.08 44.286"/>
      <path d="m74.079 450-74.079-45.107-21.351-9.0909"/>
      <path d="m21.632 450.58 15.408-23.137"/>
      <path d="m45.145 309.51 50.056 94.266 28.128 47.509"/>
      <path d="m-9.2339 258.83 11.32-17.002"/>
      <path d="m-13.485 226.82-17.699-4.214"/>
      <path d="m5.3224 168.58 34.708-90.488-64.265 40.618 32.181 40.723"/>
      <path d="m3.9432 100.9-9.5053-15.762"/>
      <path d="m-2.8487 105.19-16.044-22.072"/>
      <path d="m72.8 107.22-11.557-40.814"/>
      <path d="m72.8 107.22 25.807 27.452"/>
      <path d="m626.19 449.88c8.9898-27.531 14.889-43.263 14.889-43.263l27.25-15.17 29.828 12.89"/>
      <path d="m668.05 423.75 30.944 10.666"/>
      <path d="m632.97 429.56s16.256 6.5511 21.312 4.0227c5.0568-2.5284 3.0902-11.869 11.518-16.224"/>
      <path d="m650.71 434.16 2.8733 7.009"/>
      <path d="m663.63 394.06c-4.9059-5.8234 2.3496-17.727 4.0251-26.842"/>
      <path d="m710.44 93.093 15.206 0.28347 90.203 57.119-89.59 152.56"/>
      <path d="m713.54 299.08 68.077-170.26 41.577-70.896"/>
      <path d="m820.04 45.056-92.707 42.28-1.6856 6.04"/>
      <path d="m807.49 50.777-7.9643-19.346"/>
      <path d="m794.65 137.08 25.242-38.643-15.665-8.166"/>
      <path d="m703.89 186.1 45.822 22.528 67.799 38.413"/>
      <path d="m763.84 239.06 13.916 8.9713"/>
      <path d="m727.14 265.06 16.704 8.0337"/>
      <path d="m721.11 280.15 49.339 22.657"/>
      <path d="m821.3 198.02c-7.9121-9.9937-50.932 101.47-55.203 121.22"/>
      <path d="m782.28 272.34 26.944 14.458 8.9898-1.6856"/>
      <path d="m774.65 292.68 42.018 17.014"/>
      <path d="m766.1 319.24 53.096-13.344"/>
      <path d="m770.36 318.17c2.902 4.3018 29.871 13.151 31.416 16.101 1.5451 2.9498 1.4046 7.4446 1.4046 7.4446"/>
      <path d="m766.1 319.24s-44.006-20.375-52.554-20.16-18.109 3.2782-18.109 3.2782"/>
      <path d="m763.4 318.01s-4.6089 33.681-4.4684 69.781c0.14047 36.1-21.553 93.155-21.553 93.155"/>
      <path d="m760.24 350.49-27.855-6.2419"/>
      <path d="m727.61 379.64 31.168 14.061"/>
      <path d="m697.7 387.83 43.392 19.911 3.933-1.4046 11.736 4.902"/>
      <path d="m753.73 426.56-14.607-7.3039-5.6186 9.8326"/>
      <path d="m698.51 417.01 52.878 19.226"/>
      <path d="m749.52 443.24-25.005-9.3782"/>
      <path d="m758.93 387.79 53.665 8.147"/>
      <path d="m802.36 394.38s-10.964 30.209 10.239 32.457"/>
     </g>
    </g>
    <g stroke="url(#b)">
     <path d="m323.26 453.54c-37.795-188.98-77.591-283.46 35.795-396.85l39.275-35.83" fill="none" stroke-width="1.8898"/>
     <path d="m303.68 360.58c-56.693-207.87-1.3179-171.61-133.6-284.99 0 0-51.711-39.378-49.853-68.895" fill="none" stroke-width="1.8898"/>
     <path d="m314.3 455.34 17.921-3.5841m-19.896-6.1784 17.905-3.6618m-19.92-6.0999 17.892-3.7253m-19.939-6.0371 17.882-3.7747m-19.954-5.99 17.874-3.81m-19.963-5.9586 17.87-3.8311m-19.968-5.9429 17.869-3.8382m-19.968-5.9429 17.87-3.8311m-19.963-5.9586 17.874-3.8099m-19.954-5.99 17.881-3.7746m-19.939-6.037 17.891-3.7252m-19.92-6.0998 17.904-3.6616m-19.895-6.1783 17.92-3.584m-19.868-6.272 17.941-3.4934m-19.841-6.3922 17.978-3.3765m-19.8-6.5527 18.014-3.2118m-19.732-6.7607 18.048-2.9992m-19.638-7.0162 18.083-2.7388m-19.516-7.319 18.116-2.4306m-19.368-7.6693 18.149-2.0745m-19.192-8.0671 18.181-1.6707m-18.99-8.5123 18.213-1.219m-18.761-9.005 18.244-0.71943m-18.505-9.545 18.274-0.17208m-18.196-10.149 18.275 0.46882m-17.812-10.81 18.24 1.1683m-17.361-11.509 18.17 1.9247m-16.844-12.246 18.065 2.7379m-16.257-13.02 17.917 3.6077m-15.601-13.8 17.716 4.4899m-14.894-14.558 17.468 5.3698m-14.142-15.288 17.173 6.2472m-13.344-15.989 16.83 7.1209m-12.516-16.64 16.451 7.9467m-11.695-17.227 16.061 8.7161m-10.893-17.751 15.659 9.4291m-10.111-18.213 15.246 10.086m-9.3417-18.619 14.808 10.698m-8.5857-18.992 14.349 11.285m-7.857-19.339 13.908 11.823m-7.1723-19.646 13.485 12.312m-6.5316-19.914 13.078 12.753m-5.9348-20.143 12.689 13.145m-5.3114-19.998 12.587 13.244m-5.1786-20.003 12.546 13.283m-5.1377-20.042 12.505 13.322m-5.0969-20.081 12.464 13.361m-5.0561-20.12 12.423 13.4m-5.0152-20.159 12.382 13.439m-4.9744-20.198 12.342 13.478" fill="url(#c)" fill-rule="evenodd" stroke-width="3.6097"/>
     <path d="m295.9 367.88 17.632-4.8086m-20.245-4.9114 17.666-4.6825m-20.21-5.0569 17.699-4.5546m-20.172-5.2039 17.732-4.4248m-20.133-5.3524 17.764-4.293m-20.092-5.5025 17.796-4.1595m-20.05-5.654 17.826-4.024m-20.006-5.8072 17.857-3.8867m-19.96-5.9618 17.886-3.7475m-19.913-6.1179 17.915-3.6064m-19.864-6.2756 17.943-3.4635m-19.813-6.4348 17.971-3.3186m-19.761-6.5956 17.998-3.1719m-19.71-6.7318 18.016-3.0723m-19.693-6.7824 18.014-3.0796m-19.716-6.7156 17.994-3.1938m-19.78-6.5229 17.957-3.433m-19.91-6.092 17.839-3.9805m-20.13-5.2704 17.603-4.8826m-20.41-3.9978 17.2-6.1891m-20.68-2.3134 16.576-7.6836m-20.799-0.38705 15.758-9.2526m-20.767 1.5172 14.912-10.553m-20.606 3.0951 14.181-11.546m-20.398 4.3004 13.578-12.229m-20.18 5.1684 13.125-12.711m-20.008 5.8152 12.769-13.079m-19.869 6.295 12.507-13.333m-19.757 6.6182 12.327-13.491m-19.658 6.8532 12.163-13.637m-19.568 7.0558 12.024-13.76m-19.49 7.2217 11.91-13.86m-19.425 7.3509 11.821-13.936m-19.372 7.4434 11.757-13.99m-19.458 7.6077 11.761-13.985m-19.532 7.2121 12.227-13.576m-19.778 6.3615 12.872-12.964m-20.109 5.3943 13.541-12.297m-20.421 4.2316 14.304-11.386m-20.657 2.6404 15.245-10.047m-20.834 0.42996 16.392-8.1007m-20.619-2.9553 17.711-4.6358m-18.98-8.1564 18.239 1.1483m-17.611-11.129 18.239 1.1483m-17.611-11.129 18.239 1.1483" fill="url(#c)" fill-rule="evenodd" stroke-width="3.6097"/>
    </g>
    <path d="m347.72 238.11c60.472 105.83 41.575 11.339 105.83 136.06 23.222 45.078 37.795 83.15 37.795 83.15" fill="none" stroke="url(#c)" stroke-width="3.7795"/>
    <g fill="url(#a)" fill-rule="evenodd" stroke="url(#a)" stroke-width="1.8898">
     <path d="m411.97 306.14 43.304-28.707"/>
     <path d="m408.19 209.65 20.898 32.236"/>
     <path d="m487.56 321.26-58.472-79.37"/>
    </g>
    <path d="m438.43 188.98c45.354 75.591 56.693 86.929 109.61 90.709 52.913 3.7795 52.913 68.032 52.913 68.032" fill="none" stroke="url(#a)" stroke-width="3.7795"/>
    <path d="m434.65 336.38c18.898 7.5591 37.795-18.898 60.472-15.118s70.032 24.677 111.61 13.339" fill="none" stroke="url(#c)" stroke-linecap="round" stroke-width="3.7795"/>
    <g fill="none" stroke="url(#a)">
     <path d="m566.93 283.46c26.457 0 78.172 17.806 113.39 18.898" stroke-width="3.7795"/>
     <path d="m606.5 330.6c24.677-20.677 73.811-28.236 73.811-28.236" stroke-width="3.7795"/>
     <path d="m712.34 66.088-16.905 240.05 3.7795 168.77" stroke-linecap="round" stroke-width="6.0472"/>
     <path d="m680.31 302.36h15.118" stroke-width="3.7795"/>
    </g>
    <path id="h" d="m0.73409-29.73 18.164 48.627c31.824 82.109 53.616 165.22 64.252 249.45 31.285 53.317 67.417 102.19 86.929 166.3" fill="none" stroke="url(#c)" stroke-linecap="round" stroke-width="7.5591"/>
    <path d="m-33.968 159.07 343.89 79.044c22.677 3.7795 59.61-0.84165 83.15-18.898l260.79-196.54" fill="none" stroke="url(#c)" stroke-linecap="square" stroke-width="11.335"/>
    <path id="g" d="m589.61 30.236s37.795 49.134 49.134 64.252c6.4141 8.5521 5.8452 15.26 3.7795 30.236-15.118 109.61-43.956 243.56-64.252 347.72" fill="none" stroke="url(#b)" stroke-linecap="round" stroke-width="7.5591"/>
    <path d="m170.04-87.087v18.276" fill="none" stroke="#000" stroke-width="1px"/>
    <g fill="none" stroke="url(#a)" stroke-linecap="round" stroke-width="1.8898">
     <path d="m371.38 118.95 36.534-28.94" stroke-linejoin="round"/>
     <path d="m421.4 135.5-34.194-29.086" stroke-linejoin="round"/>
     <path d="m468.81 132.22-22.691-28.309"/>
    </g>
    <path d="m487.56 321.26-19.137-25.976" fill="url(#a)" fill-rule="evenodd" stroke="url(#c)" stroke-width="1.8898"/>
    <path d="m471.59 326.09c7.4622-3.559 15.245-6.2159 23.532-4.8347 8.0417 1.3403 19.187 4.8332 32.077 8.2779" fill="none" stroke="url(#b)" stroke-linecap="round" stroke-width="3.7795"/>
    <g transform="rotate(10.381 500.9 307.92)" stroke="url(#e)" stroke-linecap="round" stroke-width="9.0243">
     <path d="m496.13 422.64s6.9325-51.887 5.6172-90.116" fill="none" marker-end="url(#j)"/>
     <path d="m446.14 429.75c-112.35 62.315 125.63-7.6704 125.63-7.6704-66.107-24.224-69.265-64.769-70.029-89.551 0.76395 24.782 1.4412 64.303-55.6 97.221z" fill="url(#e)" fill-rule="evenodd" stroke-linejoin="round"/>
    </g>
    <g>
     <rect transform="rotate(2.9287)" x="-24.431" y="368.87" width="803.34" height="146.19" ry=".40616" fill="url(#p)"/>
     <rect transform="scale(1,-1)" x="-56.338" y="-48.008" width="767.21" height="125.55" ry=".40616" fill="url(#o)"/>
     <rect transform="matrix(0,-1,-1,0,0,0)" x="-615.37" y="-18.437" width="666.66" height="125.55" ry=".40616" fill="url(#n)"/>
     <rect transform="rotate(-90)" x="-574.66" y="724.58" width="666.66" height="125.55" ry=".40616" fill="url(#m)"/>
     <rect transform="rotate(20.812)" x="671.89" y="157.94" width="200.94" height="125.55" ry=".40616" fill="url(#l)"/>
    </g>
    <ellipse cx="500.9" cy="307.92" rx="34.97" ry="32.952" fill="none" stroke="url(#e)" stroke-width="3.7795"/>
    <g fill="url(#b)">
     <circle cx="624.42" cy="75.629" r="9.4488"/>
     <circle cx="610.68" cy="309.69" r="9.4488"/>
     <text x="504.32162" y="171.71182" font-family="'Gentium Book Basic'" font-size="44.57px" letter-spacing="0px" stroke-width="1px" word-spacing="0px" style="line-height:0%" xml:space="preserve"><tspan x="504.32162" y="171.71182" dx="5.806767" style="line-height:1">Terres</tspan><tspan x="504.32162" y="216.28181" dx="-15.800918" style="line-height:1">Neuves</tspan></text>
     <text transform="translate(9.5507)" font-family="'Gentium Book Basic'" font-size="63.671px" letter-spacing="0px" stroke-width="1px" word-spacing="0px" style="line-height:0%" xml:space="preserve"><textPath xlink:href="#g"><tspan fill="url(#b)" font-size="63.671px" letter-spacing="0px"><tspan dx="0 0 0 0 0 6.785584" fill="url(#b)" font-size="63.671px" letter-spacing="0px">     Tram C</tspan></tspan></textPath></text>
    </g>
    <g>
     <circle cx="500.9" cy="307.92" r="3.4789" fill="url(#e)"/>
     <text x="348.9147" y="106.03297" fill="url(#b)" font-family="'Gentium Book Basic'" letter-spacing="-2.3877px" stroke-width="1px" word-spacing="0px" style="line-height:0%" xml:space="preserve"><tspan x="348.9147" y="106.03297" font-size="49.345px" style="line-height:1.25">Bordeaux</tspan></text>
     <text x="306.78888" y="350.06161" fill="url(#b)" font-family="'Gentium Book Basic'" letter-spacing="-2.3877px" stroke-width="1px" word-spacing="0px" style="line-height:0%" xml:space="preserve"><tspan x="306.78888" y="350.06161" dx="2.6074976e-010" dy="0.94861346" font-size="49.345px" style="line-height:1.25">Bègles</tspan></text>
     <rect transform="rotate(144.06)" x="-331.67" y="-75.983" width="721.11" height="135.8" ry=".43933" fill="url(#k)"/>
     <text transform="translate(9.5507)" fill="url(#b)" font-family="'Gentium Book Basic'" font-size="31.836px" letter-spacing="2.3877px" stroke-width="1px" word-spacing="0px" style="line-height:0%" xml:space="preserve"><textPath xlink:href="#h"><tspan dx="0 0 0 0 0 0 0 0 0 -9.4861345 0 0 0 0 0 0 0 0 0 0 0 0 -4.7430673" letter-spacing="2.3877px" stroke-width="1px">         Barrière     de    Bègles</tspan></textPath></text>
    </g>
    <path d="m-49.995-21.042c18.898 7.5591 37.795-18.898 60.472-15.118s70.031 24.677 111.61 13.339" fill="none" stroke="url(#c)" stroke-linecap="round" stroke-width="3.7795"/>
    <g fill="url(#b)">
     <text transform="translate(-4 6.9759e-6)" x="74.128922" y="-542.30988" font-family="'Gentium Book Basic'" font-size="31.836px" letter-spacing="2.3877px" stroke-width="1px" word-spacing="0px" style="line-height:0%" xml:space="preserve"><textPath fill="url(#b)" font-size="31.836px" letter-spacing="2.3877px" stroke-width="1px" xlink:href="#i"><tspan fill="url(#b)" font-size="31.836px" letter-spacing="2.3877px" stroke-width="1px">                                    Boulevards</tspan></textPath></text>
     <circle cx="68.517" cy="183.01" r="9.4488"/>
     <text x="610.05896" y="354.01288" font-family="'Gentium Book Basic'" font-size="44.57px" letter-spacing="0px" stroke-width="1px" word-spacing="0px" style="line-height:0%" xml:space="preserve"><tspan x="610.05896" y="354.01288" dx="0 0" style="line-height:1">La<tspan fill="none" font-size="25.469px">.</tspan>Belle </tspan><tspan x="610.05896" y="398.58289" dx="-4.1484461" style="line-height:1">Rose</tspan></text>
    </g>
   </g>
   <text x="131.41283" y="54.452679" fill="url(#b)" font-family="'Gentium Book Basic'" letter-spacing="-1px" stroke-width=".41882px" text-align="center" text-anchor="middle" word-spacing="0px" style="line-height:0%" xml:space="preserve"><tspan x="130.91283" y="54.452679" font-size="16px" stroke-width=".41882px" text-align="center" text-anchor="middle" style="line-height:1.25">Gare</tspan></text>
   <path d="m127.6 40.192h7.5591l-3.7795-4.9032z" fill="url(#b)" fill-rule="evenodd" stroke="url(#b)" stroke-linecap="round" stroke-linejoin="round" stroke-width="3.7795"/>
  </g>
 </g>
</svg>
