<?xml version="1.0" encoding="UTF-8" standalone="no"?>
<svg
   xmlns:dc="http://purl.org/dc/elements/1.1/"
   xmlns:cc="http://creativecommons.org/ns#"
   xmlns:rdf="http://www.w3.org/1999/02/22-rdf-syntax-ns#"
   xmlns:svg="http://www.w3.org/2000/svg"
   xmlns="http://www.w3.org/2000/svg"
   xmlns:sodipodi="http://sodipodi.sourceforge.net/DTD/sodipodi-0.dtd"
   xmlns:inkscape="http://www.inkscape.org/namespaces/inkscape"
   enable-background="new 0 0 2200 847"
   version="1.1"
   viewBox="0 0 897.36915 141.56836"
   xml:space="preserve"
   id="svg4"
   sodipodi:docname="rock-people-silhouette.svg"
   inkscape:version="0.92.2 (5c3e80d, 2017-08-06)"
   width="897.36914"
   height="141.56836"><metadata
     id="metadata10"><rdf:RDF><cc:Work
         rdf:about=""><dc:format>image/svg+xml</dc:format><dc:type
           rdf:resource="http://purl.org/dc/dcmitype/StillImage" /><dc:title></dc:title></cc:Work></rdf:RDF></metadata><defs
     id="defs8" /><sodipodi:namedview
     pagecolor="#ffffff"
     bordercolor="#666666"
     borderopacity="1"
     objecttolerance="10"
     gridtolerance="10"
     guidetolerance="10"
     inkscape:pageopacity="0"
     inkscape:pageshadow="2"
     inkscape:window-width="1920"
     inkscape:window-height="1017"
     id="namedview6"
     showgrid="false"
     inkscape:zoom="1.122079"
     inkscape:cx="556.97195"
     inkscape:cy="203.23528"
     inkscape:window-x="1072"
     inkscape:window-y="612"
     inkscape:window-maximized="1"
     inkscape:current-layer="svg4"
     fit-margin-top="0"
     fit-margin-left="0"
     fit-margin-right="0"
     fit-margin-bottom="0" /><path
     style="fill:#010204;stroke-width:0.82464224"
     d="m 694.02734,18.269662 c -0.34255,-4.88e-4 -0.69414,0.03805 -1.05664,0.123047 -1.94,0.69 -3.57093,2.030234 -5.21093,3.240234 v 0.002 c 0.16,0.5 0.48062,1.509532 0.64062,2.019532 0.24,1.67 0.50883,3.33 0.79883,5.000001 -8.37,3.74 -11.23977,14.451093 -8.25977,22.621093 1.73,3.8 0.74,8.048594 1.25,12.058594 0.45,4.66 2.31992,9.311719 1.16993,14.011719 -1.24,5.39 -0.1486,10.878359 -0.5586,16.318359 -0.62,2.680007 -1.34117,5.341487 -1.95117,8.021489 -0.96,-0.44 -1.91938,-0.88055 -2.85938,-1.31055 -8.73,0.69 -17.37031,-2.179682 -26.07031,-0.679682 -3.29,0.560002 -6.76898,1.218672 -9.95898,-0.11133 -4.69,-1.79 -9.80188,-1.12852 -14.67188,-1.97852 -7.33,0.55 -14.15984,3.328672 -21.33984,4.638672 -11.25,3.21 -22.79875,5.53024 -33.46875,10.49024 -3.66,2.34 -7.31141,4.70133 -10.94141,7.11133 -7.41,4.33 -1.71375,3.12653 -11.83836,2.42406 -2.90747,-0.20173 -12.07282,0.42047 -15.04054,0.77503 -6.67,1.94 -13.63993,0.40062 -20.41993,1.39062 -3.6,0.5 -7.27093,0.7693 -10.71093,2.0293 -4.82,0.88 -9.77008,0.53976 -14.58008,1.50976 -6.34,0.76 -12.45008,2.59149 -18.58008,4.27149 -1.66,1.34 -3.28844,2.71937 -4.89844,4.10937 0,0 -1.6998,-1.75681 -2.64062,-2.54297 -3.67586,-3.07157 -3.14336,-3.73665 -6.00086,-7.36959 -2.66382,-3.3867 -3.54676,-2.64321 -7.04304,-4.36041 -4.61518,-2.26676 -10.70263,2.02305 -16.63579,5.03233 -5.97,-6.44673 -14.38945,-11.83866 -24.18945,-15.53125 -2.54,-0.97925 -4.97133,-2.08012 -7.36133,-3.20898 -5.78,-2.74054 -12.5693,-4.18316 -19.0293,-5.96485 -7.94,-2.31892 -16.57992,-2.848419 -24.91992,-4.113284 -5.2,-0.476024 -10.45992,-0.552261 -15.66992,-1.021485 -14.08,0.503226 -27.79141,3.061759 -41.19141,5.904309 -7.39,2.12171 -14.87836,4.60266 -20.31836,8.73046 -1.72,1.27166 -3.93,2.16232 -6,3.13477 -1.5,1.36007 -2.89117,2.76833 -4.20117,4.2168 -0.45,1.23767 -1.37976,2.34567 -2.25976,3.46093 -5.47,-5.88909 -13.36063,-11.21239 -23.64063,-12.79687 -10.07,-6.77995 -23.15898,-10.697009 -35.20898,-15.498055 -6.41,-2.00615 -13.15016,-3.659571 -20.16016,-4.285203 -4.04,-0.720837 -7.96977,-2.066525 -12.25977,-1.529297 -6.59,-0.414821 -13.1407,0.408203 -19.7207,0.408203 -4.92,-0.142808 -9.45039,1.331897 -14.15039,2.052735 -6.04,0.965649 -11.48969,3.910203 -17.92969,3.359374 -7.76,-0.788839 -15.91023,-1.203051 -23.49023,0.490235 -10.140001,2.108108 -20.728986,2.848582 -30.958986,4.705078 -4.41,0.68003 -8.980156,-0.14321 -13.410156,0.48242 -5.01,0.91805 -10.090547,2.19799 -13.810547,4.76173 -3.34,2.40052 -7.969609,3.57535 -11.849609,5.47265 -4.68,2.62493 -10.479844,4.12933 -15.089844,6.82227 -4.38,2.68613 -10.0406249,4.18233 -14.1406249,7.11328 C 1.6494531,124.33525 0.55,124.44419 0,124.49179 v 17.07657 H 897.36914 V 31.9346 c -3.82,0.49 -7.60945,-0.908359 -11.43945,-0.318359 -3.75,0.58 -7.53055,1.049297 -11.31055,1.279297 -3.07,-0.53 -12.78567,-0.230078 -15.66567,0.919922 -1.98,0.8 -4.01008,1.49 -6.08008,2 -3.11,1.580001 -6.09992,3.379063 -9.16992,5.039063 -3.87,1.97 -6.37015,5.701094 -9.91015,8.121094 -3.82244,1.926053 -4.16088,3.694851 -7.38316,7.34678 -4.06,0 -8.11039,0.0013 -12.15039,0.111329 0.95,-6.590001 1.55085,-13.259922 1.88085,-19.919922 -2.11,-1.33 -4.43031,-2.371719 -6.32031,-4.011719 -1.87,-2.27 -3.2,-4.930001 -5,-7.250001 -1.56,0.01 -3.10062,0.03078 -4.64062,0.05078 -1.69,5.630001 -6.93875,10.041017 -6.21875,16.291017 1.67,2.2 3.10812,4.558203 4.57812,6.908203 -2.65,-1.26 -5.28976,-2.459297 -8.00976,-3.529297 l -2.66992,2.970703 c 2.08,6.59 0.47039,13.629844 -2.09961,19.839844 -2.32,1.58 -4.4804,3.360625 -6.40039,5.390625 -2.28001,0.66 -4.61922,1.058437 -6.94922,1.398437 -0.83,0.71 -1.65094,1.430157 -2.46094,2.160157 0.07,-1.6 0.16,-3.189532 0.25,-4.769532 0.62,0.36 1.86047,1.100938 2.48047,1.460938 2.05,-1.59 3.70984,-3.570313 5.33984,-5.570313 -0.01,-0.61 -0.01,-1.829687 -0.01,-2.429687 -0.5,-0.04 -1.48047,-0.110391 -1.98047,-0.150391 -0.03,-0.57 -0.0889,-1.730547 -0.12891,-2.310547 -1.58,-2.15 -3.11008,-4.350312 -4.58008,-6.570312 -1.12,-0.03 -2.22031,-0.06008 -3.32031,-0.08008 -0.01,-1.28 -0.01,-2.550547 0,-3.810547 l -2.43945,-0.199219 c -1.06,-0.66 -2.12016,-1.309219 -3.16016,-1.949219 l -1.83984,0.160157 c -1.08,-2.77 -2.83047,-5.150313 -5.48047,-6.570313 -1.83,1.25 -3.65922,2.508594 -5.44922,3.808594 0.98,3.31 1.93844,6.631484 2.64844,10.021484 -1.45,0.55 -3.06,0.819375 -4.25,1.859375 -0.64,2.64 0.74125,5.009453 2.03125,7.189453 -3.27,1.54 -6.2811,3.530235 -9.1211,5.740235 -1.35,-4.84 -0.70968,-9.880078 -0.92968,-14.830078 l 1.96093,-1.759766 c 0.03,-1.97 0.0799,-3.928906 0.16992,-5.878906 0.87,-1.44 1.95985,-2.911172 1.83985,-4.701172 0.08,-4.37 0.27906,-8.769141 -0.21094,-13.119141 -1.76,-5.130001 -5.26008,-9.410704 -8.08008,-13.970704 -1.41,0.01 -2.80945,0.03055 -4.18945,0.06055 -0.91,0.83 -1.79922,1.66 -2.69922,2.5 0.62,2.38 1.28953,4.739609 2.01953,7.099609 -0.29,1.660001 -0.52093,3.359923 -1.21093,4.919923 -1.22,1.19 -2.61907,2.199453 -3.78907,3.439453 -0.4,1.26 0.42008,2.490235 0.58008,3.740235 0.65,1.04 1.33984,2.051015 2.08984,3.041015 -0.24,2.2 -0.47937,4.399375 -0.60937,6.609375 0.9,0.5 1.80875,1.009063 2.71875,1.539063 -0.24,1.55 -0.29945,3.130937 -0.18945,4.710937 0.48,1.31 0.93961,2.640235 1.34961,3.990235 0.11,0.46 0.32945,1.370078 0.43945,1.830078 0.4,0.97 0.80117,1.959219 1.20117,2.949219 1.72,3.91 2.00883,8.230625 2.79883,12.390625 -2.58,1.38 -5.17977,2.719843 -7.75977,4.089843 -0.49,0.06 -1.44945,0.170704 -1.93945,0.220704 -1.53,0.82 -3.06953,1.609062 -4.51953,2.539062 -0.05,1.67 2.12016,1.969453 3.16015,2.939453 -3.20999,1.58 -6.17984,3.660547 -9.58984,4.810547 -1.2,0.55 -2.39031,1.109922 -3.57031,1.669922 -1,-0.48 -2,-0.950391 -3,-1.400391 -1.93,-6.58 0.0499,-13.57914 -2.08008,-20.11914 -3.03,-4.02 -5.58969,-8.389688 -8.92969,-12.179688 -0.1,-3.57 0.23852,-7.140312 1.22852,-10.570312 2.21,-1.57 3.56023,-3.930782 4.74023,-6.300782 0.08,-0.5 0.23055,-1.509531 0.31055,-2.019531 1.86,-1.49 2.76047,-5.310469 -0.51953,-5.480469 -1.01,1.4 -1.86953,2.90086 -2.76953,4.38086 -0.42,-0.42 -1.26164,-1.249922 -1.68164,-1.669922 -0.22,-2.84 -1.43008,-5.440781 -3.33008,-7.550781 0.95,-0.55 1.91109,-1.098672 2.87109,-1.638672 0.16,-2.390001 0.51875,-4.780314 1.21875,-7.070314 -1.68875,-1.56625 -8.40963,-3.503906 -6.01172,-3.503906 z m -2.88672,51.044923 c 0.58,0.02 1.7286,0.06984 2.3086,0.08984 2.62,1.95 5.20172,3.960781 7.51172,6.300781 0.07,0.49 0.21906,1.480703 0.28906,1.970703 1.7,4.22 -0.0607,8.908281 1.2793,13.238281 0.47,0.94 0.85992,1.921407 1.16992,2.941406 0.56,1.63 0.92148,3.329302 1.27148,5.029302 -1.18,1.460002 -2.82062,2.400862 -4.39062,3.380862 -0.49,0.09 -1.47094,0.25961 -1.96094,0.34961 -1.37,0.3 -2.69953,0.72062 -4.01953,1.14062 -1.22,0.19 -2.40055,0.48867 -3.56055,0.88867 -0.01,-0.73 -0.0291,-2.18039 -0.0391,-2.90039 -1.39,-1.31 -2.76969,-2.628432 -4.17969,-3.898432 0.17,-1.43 0.42953,-2.849929 1.01953,-4.169929 -0.07,-4.95 0.83993,-9.811172 1.41993,-14.701172 0.97,-3.16 0.88085,-6.510156 1.88085,-9.660156 z m 54.25977,5.980469 c 1.01,0.06 2.03055,0.110156 3.06055,0.160156 1.78,0.45 3.21,1.699922 5,2.169922 -1.51,1.34 -3.15133,2.519844 -4.86133,3.589844 -2.61,0.09 -5.13031,0.790625 -7.57031,1.640624 -2.9,-3.48 2.03109,-5.750546 4.37109,-7.560546 z"
     id="path2"
     inkscape:connector-curvature="0"
     sodipodi:nodetypes="ccccccccccccccccccsccccccssscccccccccccccccccccccccccccccccccccccccccccccccccccccccccccccccccccccccccccccccccccccccccccccccccccccccccscccccccccccccccccccccccc" /></svg>